{
	"id": "0e781554-dcdb-463f-a2b8-4c40336fe8e7",
	"name": "Clinical Scenario",
	"values": [
		{
			"key": "formsUrl",
			"value": "https://593c024d-953f-417f-a894-90d44decb096.mock.pstmn.io",
			"type": "text",
			"enabled": true
		},
		{
			"key": "careTeamUrl",
			"value": "https://0a8b290b-ba2a-4cb8-8e64-f5a7bc800472.mock.pstmn.io",
			"type": "default",
			"enabled": true
		}
	],
	"_postman_variable_scope": "environment",
	"_postman_exported_at": "2023-01-27T18:56:10.174Z",
	"_postman_exported_using": "Postman/10.8.11-230125-1159"
}