{
	"id": "d65819b0-84cf-4303-8dfe-314853feae51",
	"name": "Patient File-Mock",
	"values": [
		{
			"key": "url",
			"value": "https://0eea0c50-d308-484a-a97c-e7c6445b80b0.mock.pstmn.io",
			"type": "text",
			"enabled": true
		}
	],
	"_postman_variable_scope": "environment",
	"_postman_exported_at": "2022-01-06T18:29:14.511Z",
	"_postman_exported_using": "Postman/9.8.1-220105-1845"
}
